<?xml version="1.0" encoding="UTF-8" standalone="no"?>
<svg width="19px" height="19px" viewBox="0 0 19 19" version="1.1" xmlns="http://www.w3.org/2000/svg" xmlns:xlink="http://www.w3.org/1999/xlink" xmlns:sketch="http://www.bohemiancoding.com/sketch/ns">
    <!-- Generator: Sketch 3.3.3 (12081) - http://www.bohemiancoding.com/sketch -->
    <title>Sun</title>
    <desc>Created with Sketch.</desc>
    <defs></defs>
    <g id="Page-1" stroke="none" stroke-width="1" fill="none" fill-rule="evenodd" sketch:type="MSPage">
        <g id="3-copy-7" sketch:type="MSArtboardGroup" transform="translate(-1085.000000, -176.000000)" stroke="#F6C342" fill="#F6C342">
            <g id="Sun" sketch:type="MSLayerGroup" transform="translate(1086.000000, 177.000000)">
                <g id="Oval-83-+-Line-+-Line-Copy" transform="translate(8.392857, 8.303571) rotate(270.000000) translate(-8.392857, -8.303571) translate(4.446429, 4.053571)" sketch:type="MSShapeGroup">
                    <circle id="Oval-83" cx="3.75" cy="4.35714286" r="3.75"></circle>
                </g>
                <path d="M0.0494210379,8.5 L2.58425818,8.5" id="Path-153" stroke-width="2" stroke-linecap="round" sketch:type="MSShapeGroup"></path>
                <path d="M2.56699044,2.43253871 L4.19167849,4.05722676" id="Path-154" stroke-width="2" stroke-linecap="round" sketch:type="MSShapeGroup"></path>
                <path d="M8.5,0.00796072824 L8.5,2.51579047" id="Path-155" stroke-width="2" stroke-linecap="round" sketch:type="MSShapeGroup"></path>
                <path d="M14.5622297,2.46105085 L12.9186622,4.1046184" id="Path-156" stroke-width="2" stroke-linecap="round" sketch:type="MSShapeGroup"></path>
                <path d="M4.12742397,12.8538731 L2.48583299,14.4954641" id="Path-157" stroke-width="2" stroke-linecap="round" sketch:type="MSShapeGroup"></path>
                <path d="M8.5,14.4415283 L8.5,16.9425638" id="Path-158" stroke-width="2" stroke-linecap="round" sketch:type="MSShapeGroup"></path>
                <path d="M12.961513,12.8521729 L14.5294227,14.4200826" id="Path-159" stroke-width="2" stroke-linecap="round" sketch:type="MSShapeGroup"></path>
                <path d="M14.5147705,8.5 L16.9777092,8.5" id="Path-160" stroke-width="2" stroke-linecap="round" sketch:type="MSShapeGroup"></path>
            </g>
        </g>
    </g>
</svg>